{
  "http://localhost:1080/cgi-bin/welcome.pl?signOff=1" : {
    "transaction" : "http://localhost:1080/cgi-bin/welcome.pl?signOff=1",
    "sampleCount" : 100,
    "errorCount" : 0,
    "errorPct" : 0.0,
    "meanResTime" : 583.1200000000001,
    "minResTime" : 233.0,
    "maxResTime" : 1014.0,
    "pct1ResTime" : 753.9,
    "pct2ResTime" : 853.8,
    "pct3ResTime" : 1012.9199999999994,
    "throughput" : 3.5229874933943983,
    "receivedKBytesPerSec" : 3.526943973489519,
    "sentKBytesPerSec" : 1.4580489254888145
  },
  "http://localhost:1080/cgi-bin/nav.pl?page=menu&in=itinerary" : {
    "transaction" : "http://localhost:1080/cgi-bin/nav.pl?page=menu&in=itinerary",
    "sampleCount" : 100,
    "errorCount" : 0,
    "errorPct" : 0.0,
    "meanResTime" : 401.73000000000013,
    "minResTime" : 218.0,
    "maxResTime" : 664.0,
    "pct1ResTime" : 505.9000000000001,
    "pct2ResTime" : 530.55,
    "pct3ResTime" : 663.3599999999997,
    "throughput" : 3.497604141163303,
    "receivedKBytesPerSec" : 5.974959886852506,
    "sentKBytesPerSec" : 1.4099716694064566
  },
  "http://localhost:1080/cgi-bin/nav.pl?page=menu&in=flights" : {
    "transaction" : "http://localhost:1080/cgi-bin/nav.pl?page=menu&in=flights",
    "sampleCount" : 100,
    "errorCount" : 0,
    "errorPct" : 0.0,
    "meanResTime" : 418.7999999999999,
    "minResTime" : 206.0,
    "maxResTime" : 819.0,
    "pct1ResTime" : 575.6000000000001,
    "pct2ResTime" : 671.3999999999996,
    "pct3ResTime" : 818.0099999999995,
    "throughput" : 3.511482547931737,
    "receivedKBytesPerSec" : 5.998908422729826,
    "sentKBytesPerSec" : 1.4251681122269821
  },
  "http://localhost:1080/cgi-bin/reservations.pl?page=welcome" : {
    "transaction" : "http://localhost:1080/cgi-bin/reservations.pl?page=welcome",
    "sampleCount" : 100,
    "errorCount" : 0,
    "errorPct" : 0.0,
    "meanResTime" : 485.7099999999998,
    "minResTime" : 263.0,
    "maxResTime" : 858.0,
    "pct1ResTime" : 686.5,
    "pct2ResTime" : 768.8499999999999,
    "pct3ResTime" : 857.5799999999998,
    "throughput" : 3.495281370150297,
    "receivedKBytesPerSec" : 15.429243763107305,
    "sentKBytesPerSec" : 1.4220060730513806
  },
  "Test" : {
    "transaction" : "Test",
    "sampleCount" : 100,
    "errorCount" : 2,
    "errorPct" : 2.0,
    "meanResTime" : 6494.16,
    "minResTime" : 5338.0,
    "maxResTime" : 7946.0,
    "pct1ResTime" : 7123.1,
    "pct2ResTime" : 7360.949999999999,
    "pct3ResTime" : 7942.409999999998,
    "throughput" : 2.931347833733951,
    "receivedKBytesPerSec" : 140.3666749721522,
    "sentKBytesPerSec" : 21.14234625080612
  },
  "http://localhost:1080/cgi-bin/login.pl?intro=true" : {
    "transaction" : "http://localhost:1080/cgi-bin/login.pl?intro=true",
    "sampleCount" : 100,
    "errorCount" : 1,
    "errorPct" : 1.0,
    "meanResTime" : 428.86,
    "minResTime" : 173.0,
    "maxResTime" : 764.0,
    "pct1ResTime" : 590.0000000000001,
    "pct2ResTime" : 617.55,
    "pct3ResTime" : 763.92,
    "throughput" : 3.479107956719897,
    "receivedKBytesPerSec" : 3.9094097367185054,
    "sentKBytesPerSec" : 1.4500813241484884
  },
  "http://localhost:1080/cgi-bin/welcome.pl?page=itinerary" : {
    "transaction" : "http://localhost:1080/cgi-bin/welcome.pl?page=itinerary",
    "sampleCount" : 100,
    "errorCount" : 0,
    "errorPct" : 0.0,
    "meanResTime" : 541.3299999999998,
    "minResTime" : 292.0,
    "maxResTime" : 837.0,
    "pct1ResTime" : 721.6000000000001,
    "pct2ResTime" : 788.5999999999997,
    "pct3ResTime" : 836.8299999999999,
    "throughput" : 3.4769305656966027,
    "receivedKBytesPerSec" : 2.77845460215222,
    "sentKBytesPerSec" : 1.4559646743854526
  },
  "Total" : {
    "transaction" : "Total",
    "sampleCount" : 1500,
    "errorCount" : 2,
    "errorPct" : 0.13333334,
    "meanResTime" : 432.9440000000003,
    "minResTime" : 2.0,
    "maxResTime" : 1014.0,
    "pct1ResTime" : 636.0,
    "pct2ResTime" : 704.9000000000001,
    "pct3ResTime" : 837.0,
    "throughput" : 44.103378318779214,
    "receivedKBytesPerSec" : 140.79176589926786,
    "sentKBytesPerSec" : 21.20637440827967
  },
  "http://localhost:1080/cgi-bin/welcome.pl?page=search" : {
    "transaction" : "http://localhost:1080/cgi-bin/welcome.pl?page=search",
    "sampleCount" : 100,
    "errorCount" : 0,
    "errorPct" : 0.0,
    "meanResTime" : 572.9700000000001,
    "minResTime" : 334.0,
    "maxResTime" : 965.0,
    "pct1ResTime" : 776.2,
    "pct2ResTime" : 836.95,
    "pct3ResTime" : 964.6599999999999,
    "throughput" : 3.476205374213509,
    "receivedKBytesPerSec" : 2.872554163624987,
    "sentKBytesPerSec" : 1.459055732262662
  },
  "http://localhost:1080/cgi-bin/reservations.pl" : {
    "transaction" : "http://localhost:1080/cgi-bin/reservations.pl",
    "sampleCount" : 300,
    "errorCount" : 1,
    "errorPct" : 0.33333334,
    "meanResTime" : 475.6633333333334,
    "minResTime" : 211.0,
    "maxResTime" : 847.0,
    "pct1ResTime" : 627.6000000000001,
    "pct2ResTime" : 690.95,
    "pct3ResTime" : 808.95,
    "throughput" : 10.068465565847765,
    "receivedKBytesPerSec" : 27.540793017519132,
    "sentKBytesPerSec" : 7.357321452543966
  },
  "http://localhost:1080/WebTours/home.html" : {
    "transaction" : "http://localhost:1080/WebTours/home.html",
    "sampleCount" : 100,
    "errorCount" : 0,
    "errorPct" : 0.0,
    "meanResTime" : 43.7,
    "minResTime" : 2.0,
    "maxResTime" : 103.0,
    "pct1ResTime" : 49.0,
    "pct2ResTime" : 50.0,
    "pct3ResTime" : 102.93999999999997,
    "throughput" : 3.632928867252779,
    "receivedKBytesPerSec" : 5.886338143936642,
    "sentKBytesPerSec" : 1.4297561850613965
  },
  "http://localhost:1080/cgi-bin/login.pl" : {
    "transaction" : "http://localhost:1080/cgi-bin/login.pl",
    "sampleCount" : 100,
    "errorCount" : 0,
    "errorPct" : 0.0,
    "meanResTime" : 334.5800000000002,
    "minResTime" : 95.0,
    "maxResTime" : 688.0,
    "pct1ResTime" : 495.6,
    "pct2ResTime" : 553.55,
    "pct3ResTime" : 687.8799999999999,
    "throughput" : 3.443526170798898,
    "receivedKBytesPerSec" : 3.357438016528926,
    "sentKBytesPerSec" : 1.8461873708677687
  },
  "http://localhost:1080/cgi-bin/nav.pl?page=menu&in=home" : {
    "transaction" : "http://localhost:1080/cgi-bin/nav.pl?page=menu&in=home",
    "sampleCount" : 100,
    "errorCount" : 0,
    "errorPct" : 0.0,
    "meanResTime" : 436.5900000000001,
    "minResTime" : 145.0,
    "maxResTime" : 935.0,
    "pct1ResTime" : 564.9,
    "pct2ResTime" : 642.4999999999997,
    "pct3ResTime" : 934.0499999999995,
    "throughput" : 3.497726477789437,
    "receivedKBytesPerSec" : 5.974861457240294,
    "sentKBytesPerSec" : 1.4749202081147255
  },
  "http://localhost:1080/cgi-bin/nav.pl?in=home" : {
    "transaction" : "http://localhost:1080/cgi-bin/nav.pl?in=home",
    "sampleCount" : 100,
    "errorCount" : 0,
    "errorPct" : 0.0,
    "meanResTime" : 380.78,
    "minResTime" : 111.0,
    "maxResTime" : 759.0,
    "pct1ResTime" : 543.6000000000001,
    "pct2ResTime" : 597.75,
    "pct3ResTime" : 758.97,
    "throughput" : 3.5751313860784384,
    "receivedKBytesPerSec" : 6.1266370191448285,
    "sentKBytesPerSec" : 1.4209750723964105
  },
  "http://localhost:1080/cgi-bin/itinerary.pl" : {
    "transaction" : "http://localhost:1080/cgi-bin/itinerary.pl",
    "sampleCount" : 100,
    "errorCount" : 0,
    "errorPct" : 0.0,
    "meanResTime" : 439.0,
    "minResTime" : 216.0,
    "maxResTime" : 807.0,
    "pct1ResTime" : 579.9,
    "pct2ResTime" : 639.9999999999998,
    "pct3ResTime" : 805.9299999999995,
    "throughput" : 3.5023816195012607,
    "receivedKBytesPerSec" : 77.33337282633441,
    "sentKBytesPerSec" : 1.3537525830064443
  }
}